<?xml version="1.0" encoding="utf-8"?>
<!-- Generator: Adobe Illustrator 18.1.1, SVG Export Plug-In . SVG Version: 6.00 Build 0)  -->
<svg version="1.1" xmlns="http://www.w3.org/2000/svg" xmlns:xlink="http://www.w3.org/1999/xlink" x="0px" y="0px"
	 viewBox="0 0 226.2 226.7" style="enable-background:new 0 0 226.2 226.7;" xml:space="preserve">
<g id="Layer_1" style="display:none;">
	
		<circle style="display:inline;fill:none;stroke:#1D1E1C;stroke-width:10.7784;stroke-linecap:round;stroke-linejoin:round;stroke-miterlimit:10;" cx="113" cy="113.1" r="107.3"/>
	<g style="display:inline;">
		<path style="fill:#221E20;" d="M92.7,119.3c-2.2,0-4,1.8-4,4v31.3c0,2.2,1.8,4,4,4c2.2,0,4-1.8,4-4v-31.3
			C96.7,121.1,94.9,119.3,92.7,119.3L92.7,119.3z M92.7,119.3"/>
		<path style="fill:#221E20;" d="M122.9,119.3c-2.2,0-4,1.8-4,4v31.3c0,2.2,1.8,4,4,4s4-1.8,4-4v-31.3
			C126.9,121.1,125.1,119.3,122.9,119.3L122.9,119.3z M122.9,119.3"/>
		<path style="fill:#221E20;" d="M157.5,89.4h-4.6v-4.5c1.8-2.9,2.8-6.4,2.8-10c0-9.9-7.4-18.1-17-19.3c-1.8-8.9-9.7-15.6-19-15.6
			c-5.5,0-10.6,2.3-14.2,6.2c-1.9-0.6-3.8-0.9-5.8-0.9c-7.3,0-13.9,4.1-17.2,10.4c-1-0.2-2.1-0.3-3.1-0.3
			c-10.7,0-19.4,8.7-19.4,19.4c0,3.7,1,7.1,2.8,10v73.4c0,13.2,10.7,24,24,24H129c12.2,0,22.3-9.2,23.8-21h4.8c8.8,0,16-7.2,16-16
			v-39.9C173.5,96.5,166.3,89.4,157.5,89.4L157.5,89.4z M79.3,63.4c1.4,0,2.8,0.3,4.1,0.8c1,0.4,2.2,0.3,3.2-0.2
			c1-0.5,1.7-1.4,2.1-2.5c1.4-4.9,5.9-8.3,11-8.3c1.8,0,3.6,0.4,5.2,1.3c1.8,0.9,4.1,0.3,5.2-1.4c2.1-3.3,5.7-5.2,9.6-5.2
			c6.3,0,11.4,5.1,11.4,11.4c0,0,0,0.1,0,0.1c0,1.1,0.5,2.2,1.3,2.9c0.8,0.8,1.9,1.1,3,1.1c0.3,0,0.6,0,0.9,0
			c6.3,0,11.4,5.1,11.4,11.4c0,6.3-5.1,11.4-11.4,11.4h-33.9c-2.2,0-4,1.8-4,4v14.6c0,2.2-1.8,4-4,4c-2.2,0-4-1.8-4-4V90.2
			c0-2.2-1.8-4-4-4h-7.1c-6.3,0-11.4-5.1-11.4-11.4C67.9,68.5,73,63.4,79.3,63.4L79.3,63.4z M144.9,158.2c0,8.8-7.2,16-16,16H86.7
			c-8.8,0-16-7.2-16-16v-66c2.6,1.3,5.5,2,8.6,2h3.1v10.7c0,6.6,5.4,12,12,12c6.6,0,12-5.4,12-12V94.2h29.9c3.1,0,6-0.7,8.7-2V158.2
			z M165.5,145.3c0,4.4-3.6,8-8,8h-4.6V97.4h4.6c4.4,0,8,3.6,8,8V145.3z M165.5,145.3"/>
	</g>
</g>
<g id="Layer_2">
	
		<circle style="fill:none;stroke:#FFFF0D;stroke-width:10.7626;stroke-linecap:round;stroke-linejoin:round;stroke-miterlimit:10;" cx="113.1" cy="113.1" r="107.2"/>
	
		<polyline style="fill:none;stroke:#FFFF0D;stroke-width:10.7626;stroke-linecap:round;stroke-linejoin:round;stroke-miterlimit:10;" points="
		112,70.3 154.8,113.1 112,155.9 	"/>
	
		<line style="fill:none;stroke:#FFFF0D;stroke-width:10.7626;stroke-linecap:round;stroke-linejoin:round;stroke-miterlimit:10;" x1="149.4" y1="113.1" x2="55.6" y2="113.1"/>
</g>
</svg>
