<?xml version="1.0" encoding="utf-8"?>
<!-- Generator: Adobe Illustrator 16.0.0, SVG Export Plug-In . SVG Version: 6.00 Build 0)  -->
<!DOCTYPE svg PUBLIC "-//W3C//DTD SVG 1.1//EN" "http://www.w3.org/Graphics/SVG/1.1/DTD/svg11.dtd">
<svg version="1.1" id="Laag_1" xmlns="http://www.w3.org/2000/svg" xmlns:xlink="http://www.w3.org/1999/xlink" x="0px" y="0px"
	 width="382px" height="128px" viewBox="0 0 382 128" enable-background="new 0 0 382 128" xml:space="preserve">
<g>
	<defs>
		<rect id="SVGID_1_" width="382" height="128"/>
	</defs>
	<clipPath id="SVGID_2_">
		<use xlink:href="#SVGID_1_"  overflow="visible"/>
	</clipPath>
	<path clip-path="url(#SVGID_2_)" fill="#EE7203" d="M184.778,61.082c0,16.793-13.613,30.406-30.406,30.406
		c-16.792,0-30.406-13.613-30.406-30.406c0-16.792,13.614-30.405,30.406-30.405C171.165,30.677,184.778,44.29,184.778,61.082
		 M154.33,37.727c-12.887,0-23.334,10.447-23.334,23.335c0,12.887,10.447,23.335,23.334,23.335
		c12.887,0,23.335-10.448,23.335-23.335C177.665,48.174,167.217,37.727,154.33,37.727z"/>
	<path clip-path="url(#SVGID_2_)" fill="#005321" d="M3.717,127.951c-0.767,0-1.791-0.176-3.311-0.561v-1.504
		c1.136,0.256,2.095,0.385,2.944,0.385c1.343,0,2.016-0.479,2.016-1.425c0-0.607-0.288-0.975-1.12-1.407l-1.745-0.912
		c-1.392-0.735-1.967-1.615-1.967-2.943c0-2.065,1.376-3.216,3.807-3.216c0.768,0,1.52,0.143,2.976,0.544v1.504
		C6.405,118.143,5.478,118,4.629,118c-1.184,0-1.775,0.416-1.775,1.231c0,0.607,0.288,0.929,1.344,1.455l1.455,0.736
		c1.44,0.72,2.049,1.632,2.049,3.104C7.702,126.704,6.246,127.951,3.717,127.951"/>
	<polyline clip-path="url(#SVGID_2_)" fill="#005321" points="14.293,118.111 14.293,127.807 11.877,127.807 11.877,118.111 
		8.837,118.111 8.837,116.511 17.333,116.511 17.333,118.111 14.293,118.111 	"/>
	<rect x="18.933" y="116.511" clip-path="url(#SVGID_2_)" fill="#005321" width="2.416" height="11.296"/>
	<path clip-path="url(#SVGID_2_)" fill="#005321" d="M28.692,127.935c-3.424,0-5.248-1.903-5.248-5.472
		c0-3.776,2.176-6.08,5.728-6.08c0.704,0,1.52,0.161,2.912,0.544v1.441c-0.672-0.177-1.456-0.273-2.16-0.273
		c-2.688,0-4,1.376-4,4.16c0,2.624,1.248,3.937,3.76,3.937c0.72,0,1.6-0.097,2.4-0.271v1.487
		C30.244,127.823,29.492,127.935,28.692,127.935"/>
	<polyline clip-path="url(#SVGID_2_)" fill="#005321" points="40.852,127.807 40.852,122.815 36.404,122.815 36.404,127.807 
		33.988,127.807 33.988,116.511 36.404,116.511 36.404,121.135 40.852,121.135 40.852,116.511 43.268,116.511 43.268,127.807 
		40.852,127.807 	"/>
	<polyline clip-path="url(#SVGID_2_)" fill="#005321" points="50.356,118.111 50.356,127.807 47.94,127.807 47.94,118.111 
		44.9,118.111 44.9,116.511 53.396,116.511 53.396,118.111 50.356,118.111 	"/>
	<rect x="54.996" y="116.511" clip-path="url(#SVGID_2_)" fill="#005321" width="2.416" height="11.296"/>
	<polyline clip-path="url(#SVGID_2_)" fill="#005321" points="66.147,127.807 61.971,118.752 61.971,127.807 60.067,127.807 
		60.067,116.511 63.267,116.511 67.363,125.407 67.363,116.511 69.251,116.511 69.251,127.807 66.147,127.807 	"/>
	<path clip-path="url(#SVGID_2_)" fill="#005321" d="M76.914,127.935c-3.728,0-5.568-1.823-5.568-5.504
		c0-3.823,2.192-6.048,5.951-6.048c0.8,0,1.52,0.128,3.057,0.529v1.438c-0.768-0.159-1.665-0.256-2.497-0.256
		c-2.704,0-4.031,1.376-4.031,4.145c0,2.752,1.119,4,3.568,4c0.272,0,0.447-0.017,0.847-0.064v-3.584h2.257v4.816
		C78.77,127.807,77.874,127.935,76.914,127.935"/>
	<path clip-path="url(#SVGID_2_)" fill="#005321" d="M89.857,123.504h-0.975v4.303h-2.416v-11.296h3.52
		c1.824,0,2.496,0.128,3.184,0.624c0.832,0.592,1.264,1.504,1.264,2.704C94.434,122.319,92.962,123.504,89.857,123.504
		 M89.938,117.952h-1.056v4.111h1.024c1.391,0,2.048-0.688,2.048-2.111C91.954,118.576,91.313,117.952,89.938,117.952z"/>
	<polyline clip-path="url(#SVGID_2_)" fill="#005321" points="96.096,127.807 96.096,116.511 102.832,116.511 102.832,118.111 
		98.512,118.111 98.512,121.168 101.936,121.168 101.936,122.767 98.512,122.767 98.512,126.208 103.104,126.208 103.104,127.807 
		96.096,127.807 	"/>
	<polyline clip-path="url(#SVGID_2_)" fill="#005321" points="111.104,127.807 106.928,118.752 106.928,127.807 105.024,127.807 
		105.024,116.511 108.224,116.511 112.32,125.407 112.32,116.511 114.208,116.511 114.208,127.807 111.104,127.807 	"/>
	<path clip-path="url(#SVGID_2_)" fill="#005321" d="M119.664,127.951c-0.768,0-1.792-0.176-3.312-0.561v-1.504
		c1.136,0.256,2.096,0.385,2.944,0.385c1.344,0,2.016-0.479,2.016-1.425c0-0.607-0.288-0.975-1.12-1.407l-1.744-0.912
		c-1.392-0.735-1.968-1.615-1.968-2.943c0-2.065,1.376-3.216,3.808-3.216c0.768,0,1.52,0.143,2.976,0.544v1.504
		c-0.912-0.273-1.84-0.416-2.688-0.416c-1.184,0-1.776,0.416-1.776,1.231c0,0.607,0.288,0.929,1.344,1.455l1.456,0.736
		c1.44,0.72,2.048,1.632,2.048,3.104C123.648,126.704,122.192,127.951,119.664,127.951"/>
	<rect x="125.728" y="116.511" clip-path="url(#SVGID_2_)" fill="#005321" width="2.416" height="11.296"/>
	<path clip-path="url(#SVGID_2_)" fill="#005321" d="M135.55,128c-3.407,0-5.296-2.033-5.296-5.681c0-3.743,1.984-6,5.281-6
		c3.423,0,5.296,2.017,5.296,5.681C140.831,125.743,138.847,128,135.55,128 M135.566,117.983c-1.856,0-2.832,1.439-2.832,4.208
		c0,2.8,0.896,4.145,2.785,4.145c1.872,0,2.832-1.441,2.832-4.241C138.351,119.328,137.438,117.983,135.566,117.983z"/>
	<polyline clip-path="url(#SVGID_2_)" fill="#005321" points="142.958,127.807 142.958,116.511 149.693,116.511 149.693,118.111 
		145.374,118.111 145.374,121.168 148.797,121.168 148.797,122.767 145.374,122.767 145.374,126.208 149.965,126.208 
		149.965,127.807 142.958,127.807 	"/>
	<polyline clip-path="url(#SVGID_2_)" fill="#005321" points="157.965,127.807 153.79,118.752 153.79,127.807 151.886,127.807 
		151.886,116.511 155.085,116.511 159.182,125.407 159.182,116.511 161.069,116.511 161.069,127.807 157.965,127.807 	"/>
	<polyline clip-path="url(#SVGID_2_)" fill="#005321" points="166.094,118.111 166.094,121.168 169.518,121.168 169.518,122.767 
		166.094,122.767 166.094,127.807 163.678,127.807 163.678,116.511 170.414,116.511 170.414,118.111 166.094,118.111 	"/>
	<path clip-path="url(#SVGID_2_)" fill="#005321" d="M176.651,128c-3.407,0-5.296-2.033-5.296-5.681c0-3.743,1.985-6,5.281-6
		c3.424,0,5.296,2.017,5.296,5.681C181.932,125.743,179.947,128,176.651,128 M176.668,117.983c-1.856,0-2.833,1.439-2.833,4.208
		c0,2.8,0.896,4.145,2.785,4.145c1.872,0,2.832-1.441,2.832-4.241C179.452,119.328,178.54,117.983,176.668,117.983z"/>
	<polyline clip-path="url(#SVGID_2_)" fill="#005321" points="190.139,127.807 185.963,118.752 185.963,127.807 184.059,127.807 
		184.059,116.511 187.259,116.511 191.354,125.407 191.354,116.511 193.243,116.511 193.243,127.807 190.139,127.807 	"/>
	<path clip-path="url(#SVGID_2_)" fill="#005321" d="M202.763,127.199c-0.896,0.448-1.808,0.607-3.664,0.607h-3.248v-11.296h3.473
		c2.208,0,2.943,0.128,3.871,0.672c1.536,0.912,2.337,2.529,2.337,4.737C205.531,124.463,204.57,126.271,202.763,127.199
		 M201.563,118.559c-0.561-0.336-1.152-0.447-2.24-0.447h-1.057v8.097h1.024c2.56,0,3.775-1.313,3.775-4.097
		C203.066,120.336,202.555,119.135,201.563,118.559z"/>
	<path clip-path="url(#SVGID_2_)" fill="#005321" d="M210.267,127.951c-0.768,0-1.792-0.176-3.312-0.561v-1.504
		c1.136,0.256,2.096,0.385,2.943,0.385c1.345,0,2.017-0.479,2.017-1.425c0-0.607-0.288-0.975-1.12-1.407l-1.744-0.912
		c-1.392-0.735-1.968-1.615-1.968-2.943c0-2.065,1.376-3.216,3.808-3.216c0.769,0,1.521,0.143,2.977,0.544v1.504
		c-0.912-0.273-1.841-0.416-2.688-0.416c-1.184,0-1.775,0.416-1.775,1.231c0,0.607,0.287,0.929,1.344,1.455l1.456,0.736
		c1.439,0.72,2.048,1.632,2.048,3.104C214.251,126.704,212.795,127.951,210.267,127.951"/>
	<path clip-path="url(#SVGID_2_)" fill="#005321" d="M224.795,128c-3.408,0-5.296-2.033-5.296-5.681c0-3.743,1.983-6,5.279-6
		c3.424,0,5.296,2.017,5.296,5.681C230.074,125.743,228.091,128,224.795,128 M224.811,117.983c-1.855,0-2.832,1.439-2.832,4.208
		c0,2.8,0.896,4.145,2.784,4.145c1.872,0,2.832-1.441,2.832-4.241C227.595,119.328,226.683,117.983,224.811,117.983z"/>
	<path clip-path="url(#SVGID_2_)" fill="#005321" d="M235.595,123.504h-0.977v4.303h-2.416v-11.296h3.521
		c1.824,0,2.496,0.128,3.184,0.624c0.832,0.592,1.264,1.504,1.264,2.704C240.17,122.319,238.698,123.504,235.595,123.504
		 M235.675,117.952h-1.057v4.111h1.024c1.392,0,2.048-0.688,2.048-2.111C237.69,118.576,237.051,117.952,235.675,117.952z"/>
	<polyline clip-path="url(#SVGID_2_)" fill="#005321" points="241.832,127.807 241.832,116.511 248.568,116.511 248.568,118.111 
		244.248,118.111 244.248,121.168 247.672,121.168 247.672,122.767 244.248,122.767 244.248,126.208 248.84,126.208 248.84,127.807 
		241.832,127.807 	"/>
	<polyline clip-path="url(#SVGID_2_)" fill="#005321" points="256.84,127.807 252.664,118.752 252.664,127.807 250.76,127.807 
		250.76,116.511 253.96,116.511 258.056,125.407 258.056,116.511 259.944,116.511 259.944,127.807 256.84,127.807 	"/>
	<path clip-path="url(#SVGID_2_)" fill="#005321" d="M268.84,127.376c-0.656,0.336-1.264,0.431-2.688,0.431h-3.601v-11.296h3.664
		c1.521,0,2.112,0.128,2.736,0.544c0.704,0.496,1.072,1.233,1.072,2.193c0,1.359-0.944,2.479-2.272,2.687
		c1.632,0.146,2.672,1.217,2.672,2.752C270.424,125.839,269.816,126.863,268.84,127.376 M265.816,117.92h-0.96v3.376h0.96
		c1.168,0,1.792-0.609,1.792-1.745C267.608,118.399,267.08,117.92,265.816,117.92z M266.056,122.704h-1.199v3.695h1.104
		c1.408,0,2.048-0.593,2.048-1.903C268.008,123.296,267.368,122.704,266.056,122.704z"/>
	<path clip-path="url(#SVGID_2_)" fill="#005321" d="M279.095,127.807l-1.023-3.311h-3.632l-0.977,3.311h-2.144l3.855-11.296h2.72
		l3.729,11.296H279.095 M276.231,118.303l-1.36,4.657h2.752L276.231,118.303z"/>
	<path clip-path="url(#SVGID_2_)" fill="#005321" d="M290.455,127.807l-1.023-3.311H285.8l-0.977,3.311h-2.144l3.855-11.296h2.721
		l3.728,11.296H290.455 M287.592,118.303l-1.36,4.657h2.752L287.592,118.303z"/>
	<path clip-path="url(#SVGID_2_)" fill="#005321" d="M300.392,127.807l-3.04-5.199h-0.416v5.199h-2.353v-11.296h3.616
		c1.584,0,2.304,0.128,2.896,0.496c0.783,0.497,1.184,1.281,1.184,2.353c0,1.664-0.88,2.688-2.56,2.977l3.504,5.471H300.392
		 M298.056,117.92h-1.12v3.439h1.056c1.248,0,1.872-0.593,1.872-1.761C299.863,118.416,299.319,117.92,298.056,117.92z"/>
	<polyline clip-path="url(#SVGID_2_)" fill="#005321" points="313.848,127.807 311.144,127.807 307.4,116.511 310.008,116.511 
		312.792,125.679 315.48,116.511 317.72,116.511 313.848,127.807 	"/>
	<polyline clip-path="url(#SVGID_2_)" fill="#005321" points="319.271,127.807 319.271,116.511 326.007,116.511 326.007,118.111 
		321.688,118.111 321.688,121.168 325.11,121.168 325.11,122.767 321.688,122.767 321.688,126.208 326.278,126.208 326.278,127.807 
		319.271,127.807 	"/>
	<path clip-path="url(#SVGID_2_)" fill="#005321" d="M334.008,127.807l-3.04-5.199h-0.416v5.199h-2.353v-11.296h3.616
		c1.584,0,2.304,0.128,2.896,0.496c0.783,0.497,1.185,1.281,1.185,2.353c0,1.664-0.881,2.688-2.561,2.977l3.504,5.471H334.008
		 M331.672,117.92h-1.12v3.439h1.056c1.248,0,1.873-0.593,1.873-1.761C333.48,118.416,332.936,117.92,331.672,117.92z"/>
	<polyline clip-path="url(#SVGID_2_)" fill="#005321" points="343.478,127.807 340.773,127.807 337.03,116.511 339.638,116.511 
		342.422,125.679 345.109,116.511 347.35,116.511 343.478,127.807 	"/>
	<path clip-path="url(#SVGID_2_)" fill="#005321" d="M353.236,128c-3.408,0-5.296-2.033-5.296-5.681c0-3.743,1.983-6,5.279-6
		c3.424,0,5.296,2.017,5.296,5.681C358.516,125.743,356.532,128,353.236,128 M353.252,117.983c-1.855,0-2.832,1.439-2.832,4.208
		c0,2.8,0.896,4.145,2.784,4.145c1.872,0,2.832-1.441,2.832-4.241C356.036,119.328,355.124,117.983,353.252,117.983z"/>
	<polyline clip-path="url(#SVGID_2_)" fill="#005321" points="360.644,127.807 360.644,116.511 367.38,116.511 367.38,118.111 
		363.06,118.111 363.06,121.168 366.483,121.168 366.483,122.767 363.06,122.767 363.06,126.208 367.651,126.208 367.651,127.807 
		360.644,127.807 	"/>
</g>
<g>
	<defs>
		<rect id="SVGID_3_" x="0.06" y="0.462" width="381.869" height="127.538"/>
	</defs>
	<clipPath id="SVGID_4_">
		<use xlink:href="#SVGID_3_"  overflow="visible"/>
	</clipPath>
	<g clip-path="url(#SVGID_4_)">
		<defs>
			<rect id="SVGID_5_" width="382" height="128"/>
		</defs>
		<clipPath id="SVGID_6_">
			<use xlink:href="#SVGID_5_"  overflow="visible"/>
		</clipPath>
		<path clip-path="url(#SVGID_6_)" fill="#005321" d="M375.38,127.807l-3.04-5.199h-0.416v5.199h-2.353v-11.296h3.616
			c1.585,0,2.304,0.128,2.896,0.496c0.783,0.497,1.184,1.281,1.184,2.353c0,1.664-0.88,2.688-2.56,2.977l3.504,5.471H375.38
			 M373.044,117.92h-1.12v3.439h1.057c1.247,0,1.871-0.593,1.871-1.761C374.852,118.416,374.308,117.92,373.044,117.92z"/>
		<path clip-path="url(#SVGID_6_)" fill="#EE7203" d="M3.5,16.19c-1.933,0-3.5,1.567-3.5,3.5v82.488c0,1.934,1.567,3.5,3.5,3.5
			h371.285c1.933,0,3.5-1.566,3.5-3.5c0-1.933-1.567-3.5-3.5-3.5c0,0-360.916,0-367.785,0c0-6.12,0-69.369,0-75.488
			c6.622,0,124.33,0,124.33,0c1.933,0,3.5-1.567,3.5-3.5s-1.567-3.5-3.5-3.5H3.5"/>
	</g>
</g>
<g>
	<defs>
		<rect id="SVGID_7_" width="382" height="128"/>
	</defs>
	<clipPath id="SVGID_8_">
		<use xlink:href="#SVGID_7_"  overflow="visible"/>
	</clipPath>
	<path clip-path="url(#SVGID_8_)" fill="#C4D6C6" d="M170.682,61.125c0,9.025-7.319,16.344-16.344,16.344
		s-16.342-7.318-16.342-16.344c0-9.027,7.317-16.344,16.342-16.344S170.682,52.098,170.682,61.125"/>
	<path clip-path="url(#SVGID_8_)" fill="#005321" d="M26.09,72.248c1.459,3.881,3.168,6.975,5.13,9.279
		c3.42,4.02,7.668,6.031,12.743,6.031c2.746,0,5.121-0.875,7.125-2.623c2.005-1.75,3.007-4.188,3.007-7.316
		c0-2.82-1.014-5.271-3.038-7.357c-1.322-1.326-4.104-3.314-8.35-5.962l-7.379-4.612c-2.222-1.409-3.991-2.832-5.308-4.27
		c-2.439-2.738-3.658-5.754-3.658-9.053c0-4.369,1.442-8.006,4.334-10.91c2.887-2.904,6.715-4.357,11.485-4.357
		c1.96,0,4.323,0.488,7.088,1.465c2.763,0.974,4.338,1.462,4.732,1.462c1.067,0,1.802-0.253,2.209-0.761
		c0.407-0.51,0.721-1.229,0.947-2.166h1.8l1.892,18.369h-2.07c-1.405-5.526-3.659-9.383-6.763-11.572
		c-3.1-2.19-6.168-3.284-9.199-3.284c-2.358,0-4.417,0.698-6.17,2.094c-1.755,1.395-2.631,3.334-2.631,5.817
		c0,2.222,0.673,4.127,2.025,5.707c1.348,1.607,3.442,3.285,6.281,5.033l7.586,4.693c4.75,2.932,8.097,5.624,10.044,8.069
		c1.918,2.476,2.878,5.399,2.878,8.774c0,4.531-1.701,8.314-5.107,11.354c-3.404,3.038-7.758,4.557-13.053,4.557
		c-2.662,0-5.443-0.512-8.344-1.531c-2.901-1.02-4.562-1.533-4.981-1.533c-1.01,0-1.689,0.32-2.039,0.951
		c-0.349,0.633-0.581,1.305-0.693,2.025h-1.891l-2.611-18.373H26.09"/>
</g>
<g>
	<defs>
		<rect id="SVGID_9_" x="0.06" y="0.462" width="381.869" height="127.538"/>
	</defs>
	<clipPath id="SVGID_10_">
		<use xlink:href="#SVGID_9_"  overflow="visible"/>
	</clipPath>
	<g clip-path="url(#SVGID_10_)">
		<defs>
			<rect id="SVGID_11_" width="382" height="128"/>
		</defs>
		<clipPath id="SVGID_12_">
			<use xlink:href="#SVGID_11_"  overflow="visible"/>
		</clipPath>
		<path clip-path="url(#SVGID_12_)" fill="#005321" d="M72.514,87.916c3.291-0.303,5.343-0.953,6.16-1.941
			c0.815-0.99,1.223-3.254,1.223-6.793V41.635c0-3-0.458-4.983-1.373-5.938c-0.914-0.951-2.917-1.55-6.01-1.806V32.27h22.775
			c7.31,0,12.906,1.427,16.788,4.273c3.88,2.852,5.818,6.6,5.818,11.256c0,5.892-2.147,10.168-6.443,12.82
			c-4.295,2.652-9.672,3.978-16.131,3.978c-0.925,0-2.111-0.03-3.557-0.092c-1.448-0.061-2.522-0.092-3.222-0.092v15.759
			c0,3.238,0.505,5.275,1.516,6.115c1.008,0.836,3.265,1.381,6.768,1.629v1.623H72.514V87.916 M101.641,37.033
			c-2.437-1.072-5.514-1.611-9.239-1.611c-1.762,0-2.847,0.178-3.254,0.529c-0.404,0.35-0.606,1.137-0.606,2.348v22.605
			c1.538,0.174,2.547,0.276,3.021,0.311c0.476,0.029,0.938,0.049,1.385,0.049c3.948,0,7.056-0.567,9.323-1.698
			c4.113-2.064,6.171-5.925,6.171-11.583C108.442,42.666,106.173,39.014,101.641,37.033z"/>
		<path clip-path="url(#SVGID_12_)" fill="#005321" d="M381.916,57.697c-0.109-1.156-1.273-1.586-1.342-1.619
			c-64.77-31.671-113.547-48.83-153.455-53.987c-45.073-5.824-65.986,5.077-75.592,15.247c-5.214,5.516-7.969,12.545-7.969,20.327
			c0,8.34,3.31,16.853,9.312,24.008l-0.004,0.003c0.009,0.011,0.052,0.05,0.052,0.05c0.305,0.335,0.742,0.549,1.231,0.549
			c0.924,0,1.672-0.748,1.672-1.671c0-0.133-0.019-0.261-0.049-0.385l0.004-0.002c-1.584-4.799-2.427-9.797-2.427-14.468
			c0-5.661,1.235-13.716,7.114-19.938c6.611-6.995,24.725-17.872,71.76-12.126c40.525,4.958,94.398,21.633,144.105,44.606
			c0.078,0.036,2.748,1.361,2.838,1.406c0.119,0.061,0.684,0.254,1.047,0.188c0.688-0.125,0.957-0.382,1.234-0.688
			C381.916,58.682,381.957,58.13,381.916,57.697"/>
	</g>
</g>
<g>
	<defs>
		<rect id="SVGID_13_" width="382" height="128"/>
	</defs>
	<clipPath id="SVGID_14_">
		<use xlink:href="#SVGID_13_"  overflow="visible"/>
	</clipPath>
	<path clip-path="url(#SVGID_14_)" fill="#EE7203" d="M207.283,32.27v1.441c-2.182,0.027-3.669,0.172-4.46,0.43
		c-1.384,0.461-2.073,1.396-2.073,2.802c0,0.719,0.247,1.727,0.737,3.018c0.494,1.297,1.422,3.459,2.785,6.486l13.5,30.055
		l12.245-32.57c0.551-1.465,0.967-2.703,1.247-3.707c0.282-1.008,0.424-1.826,0.424-2.459c0-1.696-0.716-2.846-2.148-3.453
		c-0.841-0.344-2.226-0.545-4.159-0.602V32.27h17.667v1.441c-1.839,0.256-3.197,0.748-4.074,1.484
		c-1.327,1.102-2.642,3.321-3.941,6.655l-19.069,48.675h-1.309l-21.367-47.554c-1.805-4.051-3.252-6.571-4.335-7.561
		c-1.088-0.992-2.674-1.558-4.761-1.699V32.27H207.283"/>
</g>
</svg>
