<?xml version="1.0" encoding="utf-8"?>
<!-- Generator: Adobe Illustrator 18.1.1, SVG Export Plug-In . SVG Version: 6.00 Build 0)  -->
<svg version="1.1" xmlns="http://www.w3.org/2000/svg" xmlns:xlink="http://www.w3.org/1999/xlink" x="0px" y="0px"
	 viewBox="0 -101.7 191.7 178.5" style="enable-background:new 0 -101.7 191.7 178.5;" xml:space="preserve">
<g id="Layer_3" style="display:none;">
	<rect x="-4.8" y="-83.5" style="display:inline;fill:#1024DD;" width="152.8" height="163"/>
</g>
<g id="Layer_1">
	
		<circle style="fill:none;stroke:#FFFFFF;stroke-width:8;stroke-linecap:round;stroke-linejoin:round;stroke-miterlimit:10;" cx="92.4" cy="-4.4" r="68.5"/>
	<path style="fill:#FFFFFF;" d="M126.2-4.7c-0.3,1.7-0.9,3.6-1,5.4c-0.1,0.7,0.3,1.6,0.6,2.5c0.6,2.9-0.1,5.7-1.3,8.3
		c-0.3,0.7-0.6,1.7-0.6,2.5c0,3.1-1,5.7-2.6,8.3c-0.6,0.9-0.9,1.9-1.2,2.9c-1.2,4.8-4.7,7.6-9.2,9.2c-2.6,0.9-5.4,1-7.9,1
		c-11.5,0.3-22.7-0.7-34.1-2.9c-6.7-1.3-11.7-7.3-11.7-14.1c0-7.3,0-14.6,0-21.8c0-6.4,4.1-12.2,10.2-14.4c3.6-1.3,7.4-2.6,11.1-3.9
		c0.9-0.3,1.7-0.9,2.6-1.3c2.8-1.9,5.1-3.9,7.4-6.6c1.9-2.2,3.1-4.7,3.5-7.4c0.9-5.1,4.1-8.9,8.7-9.8c4.1-0.9,7.7,0.6,10.8,3.5
		c5.4,5,7.4,11.2,6,18.4c-0.3,2-0.9,4.1-1.3,6.4c0.1,0,0.3,0.1,0.6,0.1c5.4,1.6,8.6,5,9.6,10.3c0,0.1,0.1,0.3,0.1,0.6
		C126.2-7.2,126.2-5.9,126.2-4.7z M64.8,7.1c0,3.6,0,7,0,10.6c0,3.2,2.5,6.4,5.5,6.8c4.8,0.9,9.6,1.6,14.4,2
		c6.7,0.7,13.4,0.9,20.2,0.7c1.7,0,3.5-0.3,5-1.3c1-0.7,2-1.3,2.2-2.8c0.1-2,1.2-3.6,2.2-5.4c0.7-1.2,1-2.5,1.3-3.8
		c0.1-0.7-0.1-1.3,0-2c0.3-1.6,0.9-3.2,1.6-4.7c0.6-1.6,0.7-2.9,0.3-4.5c-0.3-1.2-0.3-2.6-0.1-3.8c0.1-1.7,0.7-3.2,0.9-4.8
		c0.3-3.2-1.3-6-4.5-6.3c-2.8-0.1-5.5,0-8,0.1c-0.7,0-1,0-0.7-0.9c0.1-0.3,0.1-0.6,0.3-0.9c1.7-3.9,3.1-8,4.1-12.4
		c0.7-2.9,0.9-5.7-0.3-8.4c-1-2.5-2.6-4.5-5.1-5.5c-1.9-0.7-3.5-0.1-4.4,1.7c-0.3,0.7-0.6,1.6-0.7,2.2c-0.6,1.9-0.9,3.8-1.7,5.5
		c-2.5,5-6.4,8.9-10.8,12.1c-1.7,1.2-3.8,2.5-5.8,3.2c-3.5,1.3-6.8,2.5-10.3,3.6c-3.5,1.2-5.5,4.5-5.7,8C64.8,0.2,64.8,3.7,64.8,7.1
		z"/>
</g>
<g id="Layer_2" style="display:none;">
	
		<circle style="display:inline;fill:none;stroke:#262626;stroke-width:8;stroke-linecap:round;stroke-linejoin:round;stroke-miterlimit:10;" cx="92.4" cy="-4.4" r="68.5"/>
	<path style="display:inline;fill:#262626;" d="M126.3-4.7c-0.3,1.7-0.9,3.6-1,5.4c-0.1,0.7,0.3,1.6,0.6,2.5
		c0.6,2.9-0.1,5.7-1.3,8.3c-0.3,0.7-0.6,1.7-0.6,2.5c0,3.1-1,5.7-2.6,8.3c-0.6,0.9-0.9,1.9-1.2,2.9c-1.2,4.8-4.7,7.6-9.2,9.2
		c-2.6,0.9-5.4,1-7.9,1c-11.5,0.3-22.7-0.7-34.1-2.9c-6.7-1.3-11.7-7.3-11.7-14.1c0-7.3,0-14.6,0-21.8c0-6.4,4.1-12.2,10.2-14.4
		c3.6-1.3,7.4-2.6,11.1-3.9c0.9-0.3,1.7-0.9,2.6-1.3c2.8-1.9,5.1-3.9,7.4-6.6c1.9-2.2,3.1-4.7,3.5-7.4c0.9-5.1,4.1-8.9,8.7-9.8
		c4.1-0.9,7.7,0.6,10.8,3.5c5.4,5,7.4,11.2,6,18.4c-0.3,2-0.9,4.1-1.3,6.4c0.1,0,0.3,0.1,0.6,0.1c5.4,1.6,8.6,5,9.6,10.3
		c0,0.1,0.1,0.3,0.1,0.6C126.3-7.2,126.3-5.9,126.3-4.7z M65,7.1c0,3.6,0,7,0,10.6c0,3.2,2.5,6.4,5.5,6.8c4.8,0.9,9.6,1.6,14.4,2
		c6.7,0.7,13.4,0.9,20.2,0.7c1.7,0,3.5-0.3,5-1.3c1-0.7,2-1.3,2.2-2.8c0.1-2,1.2-3.6,2.2-5.4c0.7-1.2,1-2.5,1.3-3.8
		c0.1-0.7-0.1-1.3,0-2c0.3-1.6,0.9-3.2,1.6-4.7c0.6-1.6,0.7-2.9,0.3-4.5c-0.3-1.2-0.3-2.6-0.1-3.8c0.1-1.7,0.7-3.2,0.9-4.8
		c0.3-3.2-1.3-6-4.5-6.3c-2.8-0.1-5.5,0-8,0.1c-0.7,0-1,0-0.7-0.9c0.1-0.3,0.1-0.6,0.3-0.9c1.7-3.9,3.1-8,4.1-12.4
		c0.7-2.9,0.9-5.7-0.3-8.4c-1-2.5-2.6-4.5-5.1-5.5c-1.9-0.7-3.5-0.1-4.4,1.7c-0.3,0.7-0.6,1.6-0.7,2.2c-0.6,1.9-0.9,3.8-1.7,5.5
		c-2.5,5-6.4,8.9-10.8,12.1c-1.7,1.2-3.8,2.5-5.8,3.2c-3.5,1.3-6.8,2.5-10.3,3.6c-3.5,1.2-5.5,4.5-5.7,8C65,0.2,65,3.7,65,7.1z"/>
</g>
</svg>
