<?xml version="1.0" encoding="utf-8"?>
<!-- Generator: Adobe Illustrator 18.1.1, SVG Export Plug-In . SVG Version: 6.00 Build 0)  -->
<svg version="1.1" xmlns="http://www.w3.org/2000/svg" xmlns:xlink="http://www.w3.org/1999/xlink" x="0px" y="0px"
	 viewBox="0 0 138 137" style="enable-background:new 0 0 138 137;" xml:space="preserve">
<g id="Layer_4_2_" style="display:none;">
	<rect x="-15" y="-17" style="display:inline;fill:#0017A0;" width="173" height="173"/>
</g>
<g id="Layer_1" style="display:none;">
	<g id="Layer_3">
		<rect x="-5.9" y="4.2" style="display:inline;stroke:#FFFFFF;stroke-miterlimit:10;" width="65.2" height="42.5"/>
	</g>
	<g id="Layer_4_1_" style="display:inline;">
		
			<circle style="fill:none;stroke:#232323;stroke-width:6;stroke-linecap:round;stroke-linejoin:round;stroke-miterlimit:10;" cx="66.4" cy="66.7" r="62.9"/>
		
			<polyline style="fill:none;stroke:#232323;stroke-width:6;stroke-linecap:round;stroke-linejoin:round;stroke-miterlimit:10;" points="
			68.6,39.5 93.8,64.7 68.6,89.8 		"/>
		
			<line style="fill:none;stroke:#232323;stroke-width:6;stroke-linecap:round;stroke-linejoin:round;stroke-miterlimit:10;" x1="91.1" y1="64" x2="37.8" y2="64"/>
	</g>
</g>
<g id="Layer_2" style="display:none;">
	<g id="Layer_4" style="display:inline;">
		
			<circle style="fill:none;stroke:#FFFFFF;stroke-width:6;stroke-linecap:round;stroke-linejoin:round;stroke-miterlimit:10;" cx="66.7" cy="66.9" r="62.9"/>
		
			<polyline style="fill:none;stroke:#FFFFFF;stroke-width:6;stroke-linecap:round;stroke-linejoin:round;stroke-miterlimit:10;" points="
			68.9,39.7 94.1,64.8 68.9,90 		"/>
		
			<line style="fill:none;stroke:#FFFFFF;stroke-width:6;stroke-linecap:round;stroke-linejoin:round;stroke-miterlimit:10;" x1="91.4" y1="64.2" x2="38.1" y2="64.2"/>
	</g>
</g>
<g id="Layer_3_1_" style="display:none;">
</g>
<g id="Layer_5" style="display:none;">
	<g style="display:inline;">
		<rect x="51.1" y="44.6" style="fill:none;stroke:#EC1D32;stroke-width:2;stroke-miterlimit:10;" width="36.4" height="48.4"/>
		<line style="fill:none;stroke:#EC1D32;stroke-width:2;stroke-miterlimit:10;" x1="55.6" y1="56.1" x2="83.2" y2="56.1"/>
		<line style="fill:none;stroke:#EC1D32;stroke-width:2;stroke-miterlimit:10;" x1="55.6" y1="64.3" x2="83.2" y2="64.3"/>
		<line style="fill:none;stroke:#EC1D32;stroke-width:2;stroke-miterlimit:10;" x1="55.6" y1="72.9" x2="83.2" y2="72.9"/>
		<line style="fill:none;stroke:#EC1D32;stroke-width:2;stroke-miterlimit:10;" x1="55.4" y1="81.5" x2="73.5" y2="81.5"/>
	</g>
</g>
<g id="location" style="display:none;">
	<path style="display:inline;fill:#FFFFFF;" d="M69.1,109.8c-1.9-3.8-3.6-7.3-5.4-10.8C58.2,87.7,52.7,76.3,47,65.1
		c-7.5-14.9,1.6-32.9,18.1-35.7c13.7-2.3,26.5,6.9,28.6,20.6c0.8,5.2,0,10.1-2.3,14.9c-6.6,13.4-13.3,26.8-20,40.3
		C70.7,106.6,70,108.1,69.1,109.8z M58.8,50.9c0,5.6,4.5,10.3,10.1,10.3c5.9,0.1,10.6-4.5,10.6-10.3c0-5.7-4.6-10.4-10.2-10.4
		C63.5,40.4,58.9,45,58.8,50.9z"/>
</g>
<g id="name" style="display:none;">
	<path style="display:inline;fill:#FFFFFF;" d="M49.7,34c7.5,0.4,14.6,0.6,21.6,2.3c0.9,0.2,1.8,0.7,2.5,1.4
		C84.5,48.3,95.1,59,105.7,69.7c2.5,2.5,2.5,4.8,0,7.3c-9.1,9.1-18.1,18.3-27.2,27.4c-2.7,2.7-4.9,2.7-7.5,0
		C60.4,93.8,49.8,83.1,39.2,72.6c-1.9-1.9-2.9-4-3.1-6.6c-0.4-5.8-0.7-11.5-0.9-17.3c-0.1-1.9,0.2-3.8,0.4-5.7
		c0.1-0.7,0.6-1.5,1.1-2c2.1-2,4.3-3.9,6.5-5.8c0.5-0.4,1.3-0.7,2-0.8C46.7,34.1,48.4,34.1,49.7,34z M94,73.4
		c-0.3-0.4-0.6-0.7-0.8-0.9c-7.9-7.6-15.8-15.1-23.6-22.7c-0.7-0.7-1.2-0.7-1.9,0C62,55.5,56.2,61.2,50.4,66.9
		c-0.3,0.3-0.5,0.6-0.8,0.9c8.5,8,16.9,16,25.4,24C81.4,85.7,87.6,79.6,94,73.4z M56.9,50.5c0-3.1-2.4-5.5-5.5-5.5
		c-3,0-5.4,2.5-5.5,5.4c0,3,2.5,5.6,5.5,5.6C54.4,56.1,56.8,53.6,56.9,50.5z"/>
</g>
<g id="age" style="display:none;">
	<g style="display:inline;">
		<path style="fill:#FFFFFF;" d="M40.7,89.4h-8.5v-32c-3.1,2.9-6.8,5-11,6.4v-7.7c2.2-0.7,4.6-2.1,7.2-4.1c2.6-2,4.4-4.4,5.3-7.1
			h6.9V89.4z"/>
		<path style="fill:#FFFFFF;" d="M82,81.5v7.9H52.3c0.3-3,1.3-5.8,2.9-8.5c1.6-2.7,4.8-6.2,9.5-10.6c3.8-3.6,6.2-6,7-7.2
			c1.2-1.7,1.8-3.5,1.8-5.2c0-1.9-0.5-3.3-1.5-4.4c-1-1-2.4-1.5-4.2-1.5c-1.8,0-3.2,0.5-4.2,1.6c-1,1.1-1.7,2.8-1.8,5.3l-8.5-0.8
			c0.5-4.7,2.1-8,4.7-10.1c2.7-2,6-3,10-3c4.4,0,7.8,1.2,10.3,3.5c2.5,2.4,3.7,5.3,3.7,8.8c0,2-0.4,3.9-1.1,5.7
			c-0.7,1.8-1.8,3.7-3.4,5.7c-1,1.3-2.9,3.2-5.6,5.6c-2.7,2.5-4.4,4.1-5.1,4.9c-0.7,0.8-1.3,1.6-1.7,2.4H82z"/>
		<path style="fill:#FFFFFF;" d="M99.3,83V71.5H87.7v-7.9h11.6V52.1h7.7v11.5h11.6v7.9H107V83H99.3z"/>
	</g>
</g>
<g id="gender" style="display:none;">
	<path style="display:inline;fill:#FFFFFF;" d="M96.6,41c-2.3,2.4-4.5,4.6-6.5,6.7c1.2,2.9,2.8,5.8,3.6,9c3.7,14-5.1,28.3-19.2,31.6
		c-1.8,0.4-2.4,1.1-2.1,2.8c0.1,0.8,0,1.6,0,2.6c2.2,0,4.3-0.1,6.4,0c3.3,0.1,5.2,3,3.9,5.8c-0.8,1.6-2.2,2.2-3.9,2.2
		c-2,0-4.1,0-6.3,0c0,2.3,0.1,4.4,0,6.5c-0.1,3.2-3,5.1-5.7,3.8c-1.5-0.7-2.3-2-2.3-3.7c0-2.1,0-4.2,0-6.5c-2.2,0-4.1,0-6.1,0
		c-2.8,0-4.6-1.5-4.6-4c0-2.4,1.7-4,4.5-4c2,0,4,0,6.2,0c0-1.5,0.1-2.8-0.1-4.1c-0.1-0.5-0.9-1.1-1.5-1.2
		c-6.8-1.5-12.2-5.1-16.1-10.8C35.5,61.6,46,39,65.7,37.1c6.1-0.6,11.8,0.7,16.9,4.1c0.9,0.6,1.5,0.6,2.3-0.2
		c1.8-1.9,3.7-3.8,5.9-5.9c-1.2-0.1-2.1-0.1-2.9-0.2c-2.4-0.3-3.9-1.9-3.7-4.3c0.1-2.2,1.8-3.7,4.1-3.7c4.2,0,8.3,0,12.5,0
		c2.3,0,3.8,1.6,3.8,3.9c0,4.1,0,8.1,0,12.2c0,2.5-1.6,4.3-3.9,4.3c-2.3,0.1-4.1-1.7-4.1-4.3C96.6,42.4,96.6,41.8,96.6,41z
		 M68.4,81.1c10.1,0,18.3-8.1,18.2-18.1c0-9.9-8.2-18-18.2-18c-10.1,0-18.2,8-18.3,18C50.2,73.1,58.2,81.1,68.4,81.1z"/>
</g>
<g id="data" style="display:none;">
	<g style="display:inline;">
		<rect x="41.6" y="34.8" style="fill:none;stroke:#FFFFFF;stroke-width:3;stroke-miterlimit:10;" width="52.8" height="70.2"/>
		<line style="fill:none;stroke:#FFFFFF;stroke-width:3;stroke-miterlimit:10;" x1="48.1" y1="51.4" x2="88.3" y2="51.4"/>
		<line style="fill:none;stroke:#FFFFFF;stroke-width:3;stroke-miterlimit:10;" x1="48.1" y1="63.3" x2="88.3" y2="63.3"/>
		<line style="fill:none;stroke:#FFFFFF;stroke-width:3;stroke-miterlimit:10;" x1="48.1" y1="75.8" x2="88.3" y2="75.8"/>
		<line style="fill:none;stroke:#FFFFFF;stroke-width:3;stroke-miterlimit:10;" x1="47.9" y1="88.3" x2="74.1" y2="88.3"/>
	</g>
</g>
<g id="question_box_icon" style="display:none;">
	<g style="display:inline;">
		<path style="fill:#FFFFFF;" d="M99.1,101.2H39.5c-2.4,0-4.3-1.9-4.3-4.3V37.3c0-2.4,1.9-4.3,4.3-4.3h59.6c2.4,0,4.3,1.9,4.3,4.3
			V97C103.4,99.3,101.5,101.2,99.1,101.2z"/>
		<g>
			<path style="stroke:#000000;stroke-width:0.5657;stroke-miterlimit:10;" d="M62.5,76.8l-0.1-1.5c-0.3-3.1,0.7-6.5,3.5-9.9
				c2.6-3,4-5.3,4-7.8c0-2.9-1.8-4.9-5.4-4.9c-2.1,0-4.4,0.7-5.8,1.8l-1.4-3.6c1.9-1.4,5.2-2.3,8.2-2.3c6.6,0,9.6,4.1,9.6,8.4
				c0,3.9-2.2,6.7-4.9,10c-2.5,3-3.4,5.5-3.3,8.4l0.1,1.5H62.5z M61.2,84.9c0-2.1,1.4-3.6,3.4-3.6s3.4,1.5,3.4,3.6
				c0,2-1.3,3.6-3.4,3.6C62.6,88.4,61.2,86.9,61.2,84.9z"/>
		</g>
	</g>
</g>
<g id="Layer_12" style="display:none;">
	<g style="display:inline;">
		<path style="fill:#E01E25;" d="M99.1,101.2H39.5c-2.4,0-4.3-1.9-4.3-4.3V37.3c0-2.4,1.9-4.3,4.3-4.3h59.6c2.4,0,4.3,1.9,4.3,4.3
			V97C103.4,99.3,101.5,101.2,99.1,101.2z"/>
		<g>
			<path style="fill:#FFFFFF;stroke:#FFFFFF;stroke-width:0.5657;stroke-miterlimit:10;" d="M62.5,76.8l-0.1-1.5
				c-0.3-3.1,0.7-6.5,3.5-9.9c2.6-3,4-5.3,4-7.8c0-2.9-1.8-4.9-5.4-4.9c-2.1,0-4.4,0.7-5.8,1.8l-1.4-3.6c1.9-1.4,5.2-2.3,8.2-2.3
				c6.6,0,9.6,4.1,9.6,8.4c0,3.9-2.2,6.7-4.9,10c-2.5,3-3.4,5.5-3.3,8.4l0.1,1.5H62.5z M61.2,84.9c0-2.1,1.4-3.6,3.4-3.6
				s3.4,1.5,3.4,3.6c0,2-1.3,3.6-3.4,3.6C62.6,88.4,61.2,86.9,61.2,84.9z"/>
		</g>
	</g>
</g>
<g id="Layer_13" style="display:none;">
	<g style="display:inline;">
		<g>
			<path style="fill:#FFFFFF;" d="M35.7,68.6c7.6,11.2,14.2,23.1,19.6,35.6c2.9,6.6,11.6,3.4,13.7-1.8c8.7-21.8,17.8-44.3,34.8-61.1
				c6.9-6.8-3.7-17.4-10.6-10.6c-18.9,18.7-29,43.4-38.7,67.7c4.6-0.6,9.1-1.2,13.7-1.8C62.8,84.1,56.3,72.3,48.6,61
				C43.2,53.1,30.2,60.6,35.7,68.6L35.7,68.6z"/>
		</g>
	</g>
</g>
<g id="Layer_14" style="display:none;">
	<g style="display:inline;">
		<g>
			<path style="fill:#E01E25;" d="M35.7,68.6c7.6,11.2,14.2,23.1,19.6,35.6c2.9,6.6,11.6,3.4,13.7-1.8c8.7-21.8,17.8-44.3,34.8-61.1
				c6.9-6.8-3.7-17.4-10.6-10.6c-18.9,18.7-29,43.4-38.7,67.7c4.6-0.6,9.1-1.2,13.7-1.8C62.8,84.1,56.3,72.3,48.6,61
				C43.2,53.1,30.2,60.6,35.7,68.6L35.7,68.6z"/>
		</g>
	</g>
</g>
<g id="Layer_15" style="display:none;">
	<g style="display:inline;">
		<path style="fill:none;stroke:#E20613;stroke-width:5;stroke-miterlimit:10;" d="M76.6,68.9c18.7,4.9,25.6,17.2,25.6,34.5
			c-23.7,0-47.1,0-70.5,0c-0.4-12.2,7.6-28.9,26.1-34.6C50.2,64.1,46.3,57.5,47,48.7c0.4-5.4,2.8-9.9,6.8-13.4
			c8.6-7.5,21.9-6.5,29.1,2.3C89.9,45.9,89.9,60.9,76.6,68.9z"/>
		<circle style="fill:#E20613;" cx="103.1" cy="93.2" r="14.2"/>
		<g>
			<path style="fill:#1D1D1B;stroke:#1D1D1B;stroke-width:0.6722;stroke-miterlimit:10;" d="M104.2,85.7c0,0.7-0.5,1.3-1.4,1.3
				c-0.8,0-1.3-0.6-1.3-1.3c0-0.8,0.6-1.4,1.4-1.4C103.7,84.3,104.2,84.9,104.2,85.7z M101.8,101V89h2.2V101H101.8z"/>
		</g>
	</g>
</g>
<g id="Layer_16">
	<g>
		<path style="fill:none;stroke:#FFFFFF;stroke-width:5;stroke-miterlimit:10;" d="M76.6,68.9c18.7,4.9,25.6,17.2,25.6,34.5
			c-23.7,0-47.1,0-70.5,0c-0.4-12.2,7.6-28.9,26.1-34.6C50.2,64.1,46.3,57.5,47,48.7c0.4-5.4,2.8-9.9,6.8-13.4
			c8.6-7.5,21.9-6.5,29.1,2.3C89.9,45.9,89.9,60.9,76.6,68.9z"/>
		<circle style="fill:#FFFFFF;" cx="103.1" cy="93.2" r="14.2"/>
		<g>
			<path style="fill:#1D1D1B;stroke:#1D1D1B;stroke-width:0.6722;stroke-miterlimit:10;" d="M104.2,85.7c0,0.7-0.5,1.3-1.4,1.3
				c-0.8,0-1.3-0.6-1.3-1.3c0-0.8,0.6-1.4,1.4-1.4C103.7,84.3,104.2,84.9,104.2,85.7z M101.8,101V89h2.2V101H101.8z"/>
		</g>
	</g>
</g>
</svg>
