<?xml version="1.0" encoding="utf-8"?>
<!-- Generator: Adobe Illustrator 18.1.1, SVG Export Plug-In . SVG Version: 6.00 Build 0)  -->
<svg version="1.1" xmlns="http://www.w3.org/2000/svg" xmlns:xlink="http://www.w3.org/1999/xlink" x="0px" y="0px"
	 viewBox="0 0 138 137" style="enable-background:new 0 0 138 137;" xml:space="preserve">
<g id="Layer_4_2_" style="display:none;">
	<rect x="-15" y="-17" style="display:inline;fill:#0017A0;" width="173" height="173"/>
</g>
<g id="Layer_1" style="display:none;">
	<g id="Layer_3">
		<rect x="-5.9" y="4.2" style="display:inline;stroke:#FFFFFF;stroke-miterlimit:10;" width="65.2" height="42.5"/>
	</g>
	<g id="Layer_4_1_" style="display:inline;">
		
			<circle style="fill:none;stroke:#232323;stroke-width:6;stroke-linecap:round;stroke-linejoin:round;stroke-miterlimit:10;" cx="66.4" cy="66.7" r="62.9"/>
		
			<polyline style="fill:none;stroke:#232323;stroke-width:6;stroke-linecap:round;stroke-linejoin:round;stroke-miterlimit:10;" points="
			68.6,39.5 93.8,64.7 68.6,89.8 		"/>
		
			<line style="fill:none;stroke:#232323;stroke-width:6;stroke-linecap:round;stroke-linejoin:round;stroke-miterlimit:10;" x1="91.1" y1="64" x2="37.8" y2="64"/>
	</g>
</g>
<g id="Layer_2" style="display:none;">
	<g id="Layer_4" style="display:inline;">
		
			<circle style="fill:none;stroke:#FFFFFF;stroke-width:6;stroke-linecap:round;stroke-linejoin:round;stroke-miterlimit:10;" cx="66.7" cy="66.9" r="62.9"/>
		
			<polyline style="fill:none;stroke:#FFFFFF;stroke-width:6;stroke-linecap:round;stroke-linejoin:round;stroke-miterlimit:10;" points="
			68.9,39.7 94.1,64.8 68.9,90 		"/>
		
			<line style="fill:none;stroke:#FFFFFF;stroke-width:6;stroke-linecap:round;stroke-linejoin:round;stroke-miterlimit:10;" x1="91.4" y1="64.2" x2="38.1" y2="64.2"/>
	</g>
</g>
<g id="Layer_3_1_" style="display:none;">
</g>
<g id="Layer_5" style="display:none;">
	<g style="display:inline;">
		<rect x="51.1" y="44.6" style="fill:none;stroke:#EC1D32;stroke-width:2;stroke-miterlimit:10;" width="36.4" height="48.4"/>
		<line style="fill:none;stroke:#EC1D32;stroke-width:2;stroke-miterlimit:10;" x1="55.6" y1="56.1" x2="83.2" y2="56.1"/>
		<line style="fill:none;stroke:#EC1D32;stroke-width:2;stroke-miterlimit:10;" x1="55.6" y1="64.3" x2="83.2" y2="64.3"/>
		<line style="fill:none;stroke:#EC1D32;stroke-width:2;stroke-miterlimit:10;" x1="55.6" y1="72.9" x2="83.2" y2="72.9"/>
		<line style="fill:none;stroke:#EC1D32;stroke-width:2;stroke-miterlimit:10;" x1="55.4" y1="81.5" x2="73.5" y2="81.5"/>
	</g>
</g>
<g id="location" style="display:none;">
	<path style="display:inline;fill:#FFFFFF;" d="M69.1,109.8c-1.9-3.8-3.6-7.3-5.4-10.8C58.2,87.7,52.7,76.3,47,65.1
		c-7.5-14.9,1.6-32.9,18.1-35.7c13.7-2.3,26.5,6.9,28.6,20.6c0.8,5.2,0,10.1-2.3,14.9c-6.6,13.4-13.3,26.8-20,40.3
		C70.7,106.6,70,108.1,69.1,109.8z M58.8,50.9c0,5.6,4.5,10.3,10.1,10.3c5.9,0.1,10.6-4.5,10.6-10.3c0-5.7-4.6-10.4-10.2-10.4
		C63.5,40.4,58.9,45,58.8,50.9z"/>
</g>
<g id="name" style="display:none;">
	<path style="display:inline;fill:#FFFFFF;" d="M52.7,39c6.4,0.3,12.6,0.6,18.7,1.9c0.8,0.2,1.6,0.6,2.1,1.2
		c9.2,9.2,18.3,18.4,27.5,27.6c2.1,2.1,2.1,4.2,0,6.3C93.1,84,85.3,91.8,77.5,99.7c-2.3,2.3-4.2,2.3-6.5,0
		c-9.1-9.2-18.2-18.4-27.4-27.5c-1.7-1.7-2.5-3.5-2.7-5.7c-0.3-5-0.6-9.9-0.8-14.9c-0.1-1.6,0.1-3.3,0.4-4.9c0.1-0.6,0.5-1.3,1-1.8
		c1.8-1.7,3.7-3.4,5.6-5c0.4-0.4,1.1-0.6,1.7-0.7C50.1,39.1,51.5,39.1,52.7,39z M90.9,72.9c-0.3-0.3-0.5-0.6-0.7-0.8
		c-6.8-6.5-13.6-13-20.4-19.6c-0.6-0.6-1-0.6-1.6,0c-4.9,4.9-9.9,9.9-14.9,14.8c-0.2,0.2-0.5,0.5-0.7,0.8
		c7.3,6.9,14.6,13.8,21.9,20.7C80,83.5,85.4,78.3,90.9,72.9z M58.9,53.2c0-2.6-2.1-4.8-4.7-4.7c-2.6,0-4.7,2.1-4.7,4.7
		c0,2.6,2.2,4.8,4.7,4.8C56.7,58,58.8,55.9,58.9,53.2z"/>
</g>
<g id="age">
	<g>
		<path style="fill:#FFFFFF;" d="M40.7,89.4h-8.5v-32c-3.1,2.9-6.8,5-11,6.4v-7.7c2.2-0.7,4.6-2.1,7.2-4.1c2.6-2,4.4-4.4,5.3-7.1
			h6.9V89.4z"/>
		<path style="fill:#FFFFFF;" d="M82,81.5v7.9H52.3c0.3-3,1.3-5.8,2.9-8.5c1.6-2.7,4.8-6.2,9.5-10.6c3.8-3.6,6.2-6,7-7.2
			c1.2-1.7,1.8-3.5,1.8-5.2c0-1.9-0.5-3.3-1.5-4.4c-1-1-2.4-1.5-4.2-1.5c-1.8,0-3.2,0.5-4.2,1.6c-1,1.1-1.7,2.8-1.8,5.3l-8.5-0.8
			c0.5-4.7,2.1-8,4.7-10.1c2.7-2,6-3,10-3c4.4,0,7.8,1.2,10.3,3.5c2.5,2.4,3.7,5.3,3.7,8.8c0,2-0.4,3.9-1.1,5.7
			c-0.7,1.8-1.8,3.7-3.4,5.7c-1,1.3-2.9,3.2-5.6,5.6c-2.7,2.5-4.4,4.1-5.1,4.9c-0.7,0.8-1.3,1.6-1.7,2.4H82z"/>
		<path style="fill:#FFFFFF;" d="M99.3,83V71.5H87.7v-7.9h11.6V52.1h7.7v11.5h11.6v7.9H107V83H99.3z"/>
	</g>
</g>
</svg>
